Assignment 4
…
col %>%
  arrange(desc(TuitionPer))

# A tibble: 4,771 × 23
   UNITID STABBR type  Total.Income Total.Expenses Tuition Federal  State  Local
    <dbl> <fct>  <fct>        <dbl>          <dbl>   <dbl>   <dbl>  <dbl>  <dbl>
 1 441371 FL     Priv…    373780643      197772296  2.80e8  9.37e7 2.46e4 226500
 2 231068 VT     Priv…     61030630      141173242  4.70e7  0      0           0
 3 443331 CA     For-…    206190838       73750083  1.91e8  1.15e7 3.33e6      0
 4 212975 PA     Priv…     23216000       21474000  2.25e7  5.26e5 1.62e5      0
 5 366289 CA     For-…     16374633        7505723  1.23e7  4.11e6 0           0
 6 209205 OR     For-…      8880974        3104282  6.68e6  2.20e6 0           0
 7 486026 NY     Priv…      9357145        6563592  4.89e6  8.16e5 1.92e5      0
 8 143978 IL     Priv…    100708464       48155429  9.37e7  9.35e5 4.02e5      0
 9 126164 CO     For-…      1108702         415288  8.81e5  2.28e5 0           0
10 447801 CA     For-…      2446368         956148  2.29e6  0      0           0
# ℹ 4,761 more rows
# ℹ 14 more variables: Private <dbl>, Sales <dbl>, Research <dbl>,
#   Public.Service <dbl>, Student.Services <dbl>, Instruction <dbl>,
#   Academic.Support <dbl>, Other <dbl>, Institution.Name <chr>,
#   Total.Enrollment <dbl>, Full.Time.Enrollment <dbl>,
#   Undergraduate.Enrollment <dbl>, TuitionPer <dbl>, ServicesPer <dbl>
…
# this graph turned out to be very interesting considering the difference between for profits and non-profits/public 

# next I want to look at the student resources each type of college spends per student, a more broad view than just student services 
# student services, instruction expenses, and academic support seem to be the best variables to include
expenses <- col %>%
  mutate(avg = (Student.Services + Instruction + Academic.Support) / Total.Enrollment) %>%
  group_by(type) 

expenses_avg <- expenses %>%
  group_by(type) %>%
  summarize(avg = mean(avg))

expenses

# A tibble: 4,771 × 24
# Groups:   type [6]
   UNITID STABBR type  Total.Income Total.Expenses Tuition Federal  State  Local
    <dbl> <fct>  <fct>        <dbl>          <dbl>   <dbl>   <dbl>  <dbl>  <dbl>
 1 100654 AL     Publ…    159374242      103277451  4.65e7  4.52e7 4.22e7 0     
 2 100663 AL     Publ…   2958953209     2693408556  2.09e8  3.85e8 2.83e8 2.35e6
 3 100690 AL     Priv…      8318086        3558638  6.60e6  9.04e5 0      0     
 4 100706 AL     Publ…    225584462      194717488  6.24e7  8.04e7 5.20e7 0     
 5 100724 AL     Publ…    133050206       89443721  4.53e7  2.84e7 4.66e7 0     
 6 100751 AL     Publ…   1176652071      904802129  4.83e8  7.20e7 1.86e8 1.02e6
 7 100760 AL     Publ…     20045797       13917163  2.12e6  5.60e6 1.23e7 0     
 8 100812 AL     Publ…     37301196       25457379  1.54e7  5.75e6 1.55e7 0     
 9 100830 AL     Publ…     91827335       59084528  3.42e7  1.02e7 3.01e7 1.49e5
10 100858 AL     Publ…   1055964649      923953101  4.17e8  1.02e8 2.40e8 2.64e6
# ℹ 4,761 more rows
# ℹ 15 more variables: Private <dbl>, Sales <dbl>, Research <dbl>,
#   Public.Service <dbl>, Student.Services <dbl>, Instruction <dbl>,
#   Academic.Support <dbl>, Other <dbl>, Institution.Name <chr>,
#   Total.Enrollment <dbl>, Full.Time.Enrollment <dbl>,
#   Undergraduate.Enrollment <dbl>, TuitionPer <dbl>, ServicesPer <dbl>,
#   avg <dbl>
…
# A tibble: 6 × 2
  type              tvalue
  <fct>              <dbl>
1 For-Profit 2-Year     NA
2 For-Profit 4-Year     NA
3 Private NP 2-Year     NA
4 Private NP 4-Year     NA
5 Public 2-Year         NA
6 Public 4-Year         NA

tuition_to_value

# A tibble: 4,771 × 25
# Groups:   type [6]
   UNITID STABBR type  Total.Income Total.Expenses Tuition Federal  State  Local
    <dbl> <fct>  <fct>        <dbl>          <dbl>   <dbl>   <dbl>  <dbl>  <dbl>
 1 100654 AL     Publ…    159374242      103277451  4.65e7  4.52e7 4.22e7 0     
 2 100663 AL     Publ…   2958953209     2693408556  2.09e8  3.85e8 2.83e8 2.35e6
 3 100690 AL     Priv…      8318086        3558638  6.60e6  9.04e5 0      0     
 4 100706 AL     Publ…    225584462      194717488  6.24e7  8.04e7 5.20e7 0     
 5 100724 AL     Publ…    133050206       89443721  4.53e7  2.84e7 4.66e7 0     
 6 100751 AL     Publ…   1176652071      904802129  4.83e8  7.20e7 1.86e8 1.02e6
 7 100760 AL     Publ…     20045797       13917163  2.12e6  5.60e6 1.23e7 0     
 8 100812 AL     Publ…     37301196       25457379  1.54e7  5.75e6 1.55e7 0     
 9 100830 AL     Publ…     91827335       59084528  3.42e7  1.02e7 3.01e7 1.49e5
10 100858 AL     Publ…   1055964649      923953101  4.17e8  1.02e8 2.40e8 2.64e6
# ℹ 4,761 more rows
# ℹ 16 more variables: Private <dbl>, Sales <dbl>, Research <dbl>,
#   Public.Service <dbl>, Student.Services <dbl>, Instruction <dbl>,
#   Academic.Support <dbl>, Other <dbl>, Institution.Name <chr>,
#   Total.Enrollment <dbl>, Full.Time.Enrollment <dbl>,
#   Undergraduate.Enrollment <dbl>, TuitionPer <dbl>, ServicesPer <dbl>,
#   avg <dbl>, tvalue <dbl>
…
